
[
    {
        "model": "company.jobs",
        "pk": 6,
        "fields": {
            "job_id": "xxxgjco0r",
            "job_company_id": 1,
            "job_title": "Django Lover 2",
            "job_location": "Ghansoli",
            "job_salary": "ASP",
            "job_starting_date": "ASAP",
            "job_date_posted": "2018-03-08 09:10:10.811721"
        }
    },
    {
        "model": "company.jobs",
        "pk": 5,
        "fields": {
            "job_id": "xxxgjco0v",
            "job_company_id": 1,
            "job_title": "Django Developer",
            "job_location": "Ghansoli",
            "job_salary": "ASP",
            "job_starting_date": "ASAP",
            "job_date_posted": "2018-03-08 09:10:10.811721"
        }
    },
    {
        "model": "company.jobs",
        "pk": 4,
        "fields": {
            "job_id": "xxxgjco0u",
            "job_company_id": 1,
            "job_title": "Django Intern",
            "job_location": "Ghansoli",
            "job_salary": "ASP",
            "job_starting_date": "ASAP",
            "job_date_posted": "2018-03-08 09:10:10.811721"
        }
    },
    {
        "model": "company.jobs",
        "pk": 3,
        "fields": {
            "job_id": "xxxgjco0t",
            "job_company_id": 1,
            "job_title": "Django Master",
            "job_location": "Ghansoli",
            "job_salary": "ASP",
            "job_starting_date": "ASAP",
            "job_date_posted": "2018-03-08 09:10:10.811721"
        }
    },
    {
        "model": "company.jobs",
        "pk": 2,
        "fields": {
            "job_id": "xxxgjco0s",
            "job_company_id": 1,
            "job_title": "Django Trainer",
            "job_location": "Ghansoli",
            "job_salary": "ASP",
            "job_starting_date": "ASAP",
            "job_date_posted": "2018-03-08 09:10:10.811721"
        }
    },
    {
        "model": "company.jobs",
        "pk": 1,
        "fields": {
            "job_id": "xxxgjco0s",
            "job_company_id": 1,
            "job_title": "Django Trainer",
            "job_location": "Ghansoli",
            "job_salary": "ASP",
            "job_starting_date": "ASAP",
            "job_date_posted": "2018-03-08 09:10:10.811721"
        }
    }    
]

